{
  "name": "December",
  "abbreviation": "Dec",
    "talks": [
      {
        "presenter": {
          "name": "Matthew White"
        },
        "presentation": {
          "title": "Look at all the Phish!",
          "links": [
            {
              "url": "https://youtu.be/pWp2trt6y2A",
              "type": "youtube"
          }
          ]
        }
    },
      {
        "presenter": {
          "name": "Sean Flattery"
        },
        "presentation": {
          "title": "Sudoers and Auditd!",
          "links": [
            {
              "url": "https://youtu.be/hvhde2F6Jms",
              "type": "youtube"
          }
          ]
        }
    }
    ]
}