{
    "organizing": [
        {
            "date": "14 Apr 2018",
            "title": "BSidesIowa",
            "location": "Des Moines, IA",
            "link": "https://bsidesiowa.com"
        },
       {
            "date": "9 Oct 2018",
            "title": "Secure Iowa CTF",
            "location": "Des Moines, IA",
            "link": "https://secureiowaconference.com"
        }
    ],
    "participating": [
        {
            "title": "THOTCON",
            "link": "https://thotcon.org",
            "date": "May 4 - 5th, 2018",
            "location": "Chicago, IL",
            "type": "competition"
        },
        {
            "title": "BSidesIowa",
            "link": "https://bsidesiowa.com",
            "date": "April 14th, 2018 ",
            "location": "Des Moines, IA",
            "type": "training"
        }
    ],
    "completed": [
        {
            "title": "BSidesIowa",
            "link": "https://bsidesiowa.com",
            "date": "April 14th, 2018 ",
            "location": "Des Moines, IA",
            "place": "1 / 51",
            "teamMembers" : ["zoomequipd", "whatever", "zoomequipd", "whatever"]
        },
        {
            "title": "BSidesIowa",
            "link": "https://bsidesiowa.com",
            "date": "April 14th, 2018 ",
            "location": "Des Moines, IA",
            "place": "2 / 51"
        }        

    ]
}